{
  "states": [
    {
      "abbreviation": "AL",
      "area_codes": [
        "205",
        "251",
        "256",
        "334",
        "938"
      ]
    },
    {
      "abbreviation": "AK",
      "area_codes": [
        "907"
      ]
    },
    {
      "abbreviation": "AZ",
      "area_codes": [
        "480",
        "520",
        "602",
        "623",
        "928"
      ]
    },
    {
      "abbreviation": "AR",
      "area_codes": [
        "479",
        "501",
        "870"
      ]
    },
    {
      "abbreviation": "CA",
      "area_codes": [
        "209",
        "213",
        "310",
        "323",
        "408",
        "415",
        "424",
        "442",
        "510",
        "530",
        "559",
        "562",
        "619",
        "626",
        "628",
        "650",
        "657",
        "661",
        "669",
        "707",
        "714",
        "747",
        "760",
        "805",
        "818",
        "831",
        "858",
        "909",
        "916",
        "925",
        "949",
        "951"
      ]
    },
    {
      "abbreviation": "CO",
      "area_codes": [
        "303",
        "719",
        "720",
        "970"
      ]
    },
    {
      "abbreviation": "CT",
      "area_codes": [
        "203",
        "475",
        "860",
        "959"
      ]
    },
    {
      "abbreviation": "DE",
      "area_codes": [
        "302"
      ]
    },
    {
      "abbreviation": "FL",
      "area_codes": [
        "239",
        "305",
        "321",
        "352",
        "386",
        "407",
        "561",
        "727",
        "754",
        "772",
        "786",
        "813",
        "850",
        "863",
        "904",
        "941",
        "954"
      ]
    },
    {
      "abbreviation": "GA",
      "area_codes": [
        "229",
        "404",
        "470",
        "478",
        "678",
        "706",
        "762",
        "770",
        "912"
      ]
    },
    {
      "abbreviation": "HI",
      "area_codes": [
        "808"
      ]
    },
    {
      "abbreviation": "ID",
      "area_codes": [
        "208"
      ]
    },
    {
      "abbreviation": "IL",
      "area_codes": [
        "217",
        "224",
        "309",
        "312",
        "331",
        "618",
        "630",
        "708",
        "773",
        "779",
        "815",
        "847",
        "872"
      ]
    },
    {
      "abbreviation": "IN",
      "area_codes": [
        "219",
        "260",
        "317",
        "463",
        "574",
        "765",
        "812",
        "930"
      ]
    },
    {
      "abbreviation": "IA",
      "area_codes": [
        "319",
        "515",
        "563",
        "641",
        "712"
      ]
    },
    {
      "abbreviation": "KS",
      "area_codes": [
        "316",
        "620",
        "785",
        "913"
      ]
    },
    {
      "abbreviation": "KY",
      "area_codes": [
        "270",
        "364",
        "502",
        "606",
        "859"
      ]
    },
    {
      "abbreviation": "LA",
      "area_codes": [
        "225",
        "318",
        "337",
        "504",
        "985"
      ]
    },
    {
      "abbreviation": "ME",
      "area_codes": [
        "207"
      ]
    },
    {
      "abbreviation": "MD",
      "area_codes": [
        "240",
        "301",
        "410",
        "443",
        "667"
      ]
    },
    {
      "abbreviation": "MA",
      "area_codes": [
        "339",
        "351",
        "413",
        "508",
        "617",
        "774",
        "781",
        "857",
        "978"
      ]
    },
    {
      "abbreviation": "MI",
      "area_codes": [
        "231",
        "248",
        "269",
        "313",
        "517",
        "586",
        "616",
        "734",
        "810",
        "906",
        "947",
        "989"
      ]
    },
    {
      "abbreviation": "MN",
      "area_codes": [
        "218",
        "320",
        "507",
        "612",
        "651",
        "763",
        "952"
      ]
    },
    {
      "abbreviation": "MS",
      "area_codes": [
        "228",
        "601",
        "662",
        "769"
      ]
    },
    {
      "abbreviation": "MO",
      "area_codes": [
        "314",
        "417",
        "573",
        "636",
        "660",
        "816"
      ]
    },
    {
      "abbreviation": "MT",
      "area_codes": [
        "406"
      ]
    },
    {
      "abbreviation": "NE",
      "area_codes": [
        "308",
        "402",
        "531"
      ]
    },
    {
      "abbreviation": "NV",
      "area_codes": [
        "702",
        "725",
        "775"
      ]
    },
    {
      "abbreviation": "NH",
      "area_codes": [
        "603"
      ]
    },
    {
      "abbreviation": "NJ",
      "area_codes": [
        "201",
        "551",
        "609",
        "732",
        "848",
        "856",
        "862",
        "908",
        "973"
      ]
    },
    {
      "abbreviation": "NM",
      "area_codes": [
        "505",
        "575"
      ]
    },
    {
      "abbreviation": "NY",
      "area_codes": [
        "212",
        "315",
        "332",
        "347",
        "516",
        "518",
        "585",
        "607",
        "631",
        "646",
        "680",
        "716",
        "718",
        "845",
        "914",
        "917",
        "929",
        "934"
      ]
    },
    {
      "abbreviation": "NC",
      "area_codes": [
        "252",
        "336",
        "704",
        "743",
        "828",
        "910",
        "919",
        "980",
        "984"
      ]
    },
    {
      "abbreviation": "ND",
      "area_codes": [
        "701"
      ]
    },
    {
      "abbreviation": "OH",
      "area_codes": [
        "216",
        "220",
        "234",
        "330",
        "380",
        "419",
        "440",
        "513",
        "567",
        "614",
        "740",
        "937"
      ]
    },
    {
      "abbreviation": "OK",
      "area_codes": [
        "405",
        "539",
        "580",
        "918"
      ]
    },
    {
      "abbreviation": "OR",
      "area_codes": [
        "458",
        "503",
        "541",
        "971"
      ]
    },
    {
      "abbreviation": "PA",
      "area_codes": [
        "215",
        "267",
        "272",
        "412",
        "484",
        "570",
        "610",
        "717",
        "724",
        "814",
        "878"
      ]
    },
    {
      "abbreviation": "RI",
      "area_codes": [
        "401"
      ]
    },
    {
      "abbreviation": "SC",
      "area_codes": [
        "803",
        "843",
        "854",
        "864"
      ]
    },
    {
      "abbreviation": "SD",
      "area_codes": [
        "605"
      ]
    },
    {
      "abbreviation": "TN",
      "area_codes": [
        "423",
        "615",
        "629",
        "731",
        "865",
        "901",
        "931"
      ]
    },
    {
      "abbreviation": "TX",
      "area_codes": [
        "210",
        "214",
        "254",
        "281",
        "325",
        "346",
        "361",
        "409",
        "430",
        "432",
        "469",
        "512",
        "682",
        "713",
        "737",
        "806",
        "817",
        "830",
        "832",
        "903",
        "915",
        "936",
        "940",
        "956",
        "972",
        "979"
      ]
    },
    {
      "abbreviation": "UT",
      "area_codes": [
        "385",
        "435",
        "801"
      ]
    },
    {
      "abbreviation": "VT",
      "area_codes": [
        "802"
      ]
    },
    {
      "abbreviation": "VA",
      "area_codes": [
        "276",
        "434",
        "540",
        "571",
        "703",
        "757",
        "804"
      ]
    },
    {
      "abbreviation": "WA",
      "area_codes": [
        "206",
        "253",
        "360",
        "425",
        "509"
      ]
    },
    {
      "abbreviation": "WV",
      "area_codes": [
        "304",
        "681"
      ]
    },
    {
      "abbreviation": "WI",
      "area_codes": [
        "262",
        "414",
        "534",
        "608",
        "715",
        "920"
      ]
    },
    {
      "abbreviation": "WY",
      "area_codes": [
        "307"
      ]
    }
  ]
}